\relax 
\providecommand{\transparent@use}[1]{}
\providecommand\hyper@newdestlabel[2]{}
\@writefile{toc}{\contentsline {section}{\numberline {8}Za\IeC {\l }\IeC {\k a}czniki}{23}{section.8}}
\@writefile{toc}{\contentsline {subsection}{\numberline {8.1}Testowany kod \IeC {\'z}r\IeC {\'o}d\IeC {\l }owy dla j\IeC {\k e}zyka C++}{23}{subsection.8.1}}
\newlabel{listing}{{\caption@xref {listing}{ on input line 7}}{23}{Testowany kod źródłowy dla języka C++}{figure.caption.42}{}}
\@writefile{lol}{\contentsline {listing}{\numberline {11}{\ignorespaces Kod testowy dla j\IeC {\k e}zyka C++ wariant A\relax }}{23}{figure.caption.42}}
\newlabel{fig:cppsampleA}{{11}{23}{Kod testowy dla języka C++ wariant A\relax }{figure.caption.42}{}}
\newlabel{listing}{{\caption@xref {listing}{ on input line 31}}{23}{Testowany kod źródłowy dla języka C++}{figure.caption.42}{}}
\@writefile{lol}{\contentsline {listing}{\numberline {12}{\ignorespaces Kod testowy dla j\IeC {\k e}zyka C++ wariant B\relax }}{23}{figure.caption.42}}
\newlabel{fig:cppsampleB}{{12}{23}{Kod testowy dla języka C++ wariant B\relax }{figure.caption.42}{}}
\newlabel{listing}{{\caption@xref {listing}{ on input line 61}}{23}{Testowany kod źródłowy dla języka C++}{figure.caption.43}{}}
\@writefile{lol}{\contentsline {listing}{\numberline {13}{\ignorespaces Kod testowy dla j\IeC {\k e}zyka C++ wariant C\relax }}{23}{figure.caption.43}}
\newlabel{fig:cppsampleC}{{13}{23}{Kod testowy dla języka C++ wariant C\relax }{figure.caption.43}{}}
\newlabel{listing}{{\caption@xref {listing}{ on input line 95}}{23}{Testowany kod źródłowy dla języka C++}{figure.caption.43}{}}
\@writefile{lol}{\contentsline {listing}{\numberline {14}{\ignorespaces Kod testowy dla j\IeC {\k e}zyka C++ wariant D\relax }}{23}{figure.caption.43}}
\newlabel{fig:cppsampleD}{{14}{23}{Kod testowy dla języka C++ wariant D\relax }{figure.caption.43}{}}
\@writefile{toc}{\contentsline {subsection}{\numberline {8.2}Testowany kod \IeC {\'z}r\IeC {\'o}d\IeC {\l }owy dla j\IeC {\k e}zyka C Sharp}{24}{subsection.8.2}}
\newlabel{listing}{{\caption@xref {listing}{ on input line 131}}{24}{Testowany kod źródłowy dla języka C Sharp}{figure.caption.44}{}}
\@writefile{lol}{\contentsline {listing}{\numberline {15}{\ignorespaces Kod testowy dla j\IeC {\k e}zyka C Sharp wariant A\relax }}{24}{figure.caption.44}}
\newlabel{fig:csharpsampleA}{{15}{24}{Kod testowy dla języka C Sharp wariant A\relax }{figure.caption.44}{}}
\newlabel{listing}{{\caption@xref {listing}{ on input line 157}}{24}{Testowany kod źródłowy dla języka C Sharp}{figure.caption.44}{}}
\@writefile{lol}{\contentsline {listing}{\numberline {16}{\ignorespaces Kod testowy dla j\IeC {\k e}zyka C Sharp wariant B\relax }}{24}{figure.caption.44}}
\newlabel{fig:csharpsampleB}{{16}{24}{Kod testowy dla języka C Sharp wariant B\relax }{figure.caption.44}{}}
\newlabel{listing}{{\caption@xref {listing}{ on input line 190}}{24}{Testowany kod źródłowy dla języka C Sharp}{figure.caption.45}{}}
\@writefile{lol}{\contentsline {listing}{\numberline {17}{\ignorespaces Kod testowy dla j\IeC {\k e}zyka C Sharp wariant C\relax }}{24}{figure.caption.45}}
\newlabel{fig:csharpsampleC}{{17}{24}{Kod testowy dla języka C Sharp wariant C\relax }{figure.caption.45}{}}
\newlabel{listing}{{\caption@xref {listing}{ on input line 227}}{24}{Testowany kod źródłowy dla języka C Sharp}{figure.caption.45}{}}
\@writefile{lol}{\contentsline {listing}{\numberline {18}{\ignorespaces Kod testowy dla j\IeC {\k e}zyka C Sharp wariant D\relax }}{24}{figure.caption.45}}
\newlabel{fig:csharpsampled}{{18}{24}{Kod testowy dla języka C Sharp wariant D\relax }{figure.caption.45}{}}
\@writefile{toc}{\contentsline {subsection}{\numberline {8.3}Testowany kod \IeC {\'z}r\IeC {\'o}d\IeC {\l }owy dla j\IeC {\k e}zyka Java}{25}{subsection.8.3}}
\newlabel{listing}{{\caption@xref {listing}{ on input line 265}}{25}{Testowany kod źródłowy dla języka Java}{figure.caption.46}{}}
\@writefile{lol}{\contentsline {listing}{\numberline {19}{\ignorespaces Kod testowy dla j\IeC {\k e}zyka Java wariant A\relax }}{25}{figure.caption.46}}
\newlabel{fig:javasampleA}{{19}{25}{Kod testowy dla języka Java wariant A\relax }{figure.caption.46}{}}
\newlabel{listing}{{\caption@xref {listing}{ on input line 288}}{25}{Testowany kod źródłowy dla języka Java}{figure.caption.46}{}}
\@writefile{lol}{\contentsline {listing}{\numberline {20}{\ignorespaces Kod testowy dla j\IeC {\k e}zyka Java wariant B\relax }}{25}{figure.caption.46}}
\newlabel{fig:javasampleB}{{20}{25}{Kod testowy dla języka Java wariant B\relax }{figure.caption.46}{}}
\newlabel{listing}{{\caption@xref {listing}{ on input line 320}}{25}{Testowany kod źródłowy dla języka Java}{figure.caption.47}{}}
\@writefile{lol}{\contentsline {listing}{\numberline {21}{\ignorespaces Kod testowy dla j\IeC {\k e}zyka Java wariant C\relax }}{25}{figure.caption.47}}
\newlabel{fig:javasampleC}{{21}{25}{Kod testowy dla języka Java wariant C\relax }{figure.caption.47}{}}
\newlabel{listing}{{\caption@xref {listing}{ on input line 351}}{25}{Testowany kod źródłowy dla języka Java}{figure.caption.47}{}}
\@writefile{lol}{\contentsline {listing}{\numberline {22}{\ignorespaces Kod testowy dla j\IeC {\k e}zyka Java wariant D\relax }}{25}{figure.caption.47}}
\newlabel{fig:javasampleD}{{22}{25}{Kod testowy dla języka Java wariant D\relax }{figure.caption.47}{}}
\@setckpt{attachments_code}{
\setcounter{page}{26}
\setcounter{equation}{0}
\setcounter{enumi}{0}
\setcounter{enumii}{0}
\setcounter{enumiii}{0}
\setcounter{enumiv}{11}
\setcounter{footnote}{0}
\setcounter{mpfootnote}{0}
\setcounter{part}{0}
\setcounter{section}{8}
\setcounter{subsection}{3}
\setcounter{subsubsection}{0}
\setcounter{paragraph}{0}
\setcounter{subparagraph}{0}
\setcounter{figure}{6}
\setcounter{table}{2}
\setcounter{ContinuedFloat}{0}
\setcounter{subfigure}{0}
\setcounter{subtable}{0}
\setcounter{float@type}{32}
\setcounter{svg@param@lastpage}{0}
\setcounter{svg@param@currpage}{-1}
\setcounter{lstnumber}{1}
\setcounter{FancyVerbLine}{21}
\setcounter{linenumber}{1}
\setcounter{LN@truepage}{21}
\setcounter{FV@TrueTabGroupLevel}{0}
\setcounter{FV@TrueTabCounter}{0}
\setcounter{FV@HighlightLinesStart}{0}
\setcounter{FV@HighlightLinesStop}{0}
\setcounter{FancyVerbLineBreakLast}{0}
\setcounter{minted@FancyVerbLineTemp}{21}
\setcounter{minted@pygmentizecounter}{22}
\setcounter{listing}{22}
\setcounter{Item}{0}
\setcounter{Hfootnote}{0}
\setcounter{bookmark@seq@number}{42}
\setcounter{chart}{4}
\setcounter{subchart}{0}
\setcounter{lstlisting}{0}
\setcounter{section@level}{2}
}
