\relax 
\providecommand{\transparent@use}[1]{}
\providecommand\hyper@newdestlabel[2]{}
\providecommand\HyperFirstAtBeginDocument{\AtBeginDocument}
\HyperFirstAtBeginDocument{\ifx\hyper@anchor\@undefined
\global\let\oldcontentsline\contentsline
\gdef\contentsline#1#2#3#4{\oldcontentsline{#1}{#2}{#3}}
\global\let\oldnewlabel\newlabel
\gdef\newlabel#1#2{\newlabelxx{#1}#2}
\gdef\newlabelxx#1#2#3#4#5#6{\oldnewlabel{#1}{{#2}{#3}}}
\AtEndDocument{\ifx\hyper@anchor\@undefined
\let\contentsline\oldcontentsline
\let\newlabel\oldnewlabel
\fi}
\fi}
\global\let\hyper@last\relax 
\gdef\HyperFirstAtBeginDocument#1{#1}
\providecommand\HyField@AuxAddToFields[1]{}
\providecommand\HyField@AuxAddToCoFields[2]{}
\citation{aot}
\citation{jit}
\@writefile{toc}{\contentsline {section}{\numberline {1}Wst\IeC {\k e}p}{6}{section.1}}
\@writefile{toc}{\contentsline {subsection}{\numberline {1.1}Metody kompilacji i wykonywania programu}{6}{subsection.1.1}}
\@writefile{toc}{\contentsline {subsubsection}{\numberline {1.1.1}Kompilacja Ahead-Of-Time}{6}{subsubsection.1.1.1}}
\@writefile{lof}{\contentsline {figure}{\numberline {1}{\ignorespaces Przebieg kompilacji AOT\relax }}{6}{figure.caption.2}}
\providecommand*\caption@xref[2]{\@setref\relax\@undefined{#1}}
\newlabel{fig:aot}{{1}{6}{Przebieg kompilacji AOT\relax }{figure.caption.2}{}}
\@writefile{toc}{\contentsline {paragraph}{}{6}{section*.3}}
\@writefile{toc}{\contentsline {subsubsection}{\numberline {1.1.2}Kompilacja Just-In-Time}{6}{subsubsection.1.1.2}}
\citation{code_manipulation}
\citation{codemanipulation}
\@writefile{lof}{\contentsline {figure}{\numberline {2}{\ignorespaces Przebieg kompilacji i wykonania programu JIT\relax }}{7}{figure.caption.4}}
\newlabel{fig:jit}{{2}{7}{Przebieg kompilacji i wykonania programu JIT\relax }{figure.caption.4}{}}
\@writefile{toc}{\contentsline {paragraph}{}{7}{section*.5}}
\@writefile{toc}{\contentsline {subsection}{\numberline {1.2}Optymalizacja r\IeC {\k e}czna}{7}{subsection.1.2}}
\@writefile{toc}{\contentsline {paragraph}{}{7}{section*.6}}
\@writefile{toc}{\contentsline {paragraph}{}{7}{section*.7}}
\citation{branchingexpl}
\citation{x86assemblymanual}
\citation{branching}
\citation{x86assemblymanual}
\citation{x86assemblystatistics}
\citation{cmovcc}
\@writefile{toc}{\contentsline {section}{\numberline {2}Instrukcje rozga\IeC {\l }\IeC {\k e}ziaj\IeC {\k a}ce}{8}{section.2}}
\@writefile{toc}{\contentsline {subsection}{\numberline {2.1}Wst\IeC {\k e}p teoretyczny do zagadnienia instrukcji rozga\IeC {\l }\IeC {\k e}ziaj\IeC {\k a}cych}{8}{subsection.2.1}}
\@writefile{toc}{\contentsline {paragraph}{}{8}{section*.8}}
\@writefile{toc}{\contentsline {subsubsection}{\numberline {2.1.1}Przyk\IeC {\l }adowe instrukcje rozga\IeC {\l }\IeC {\k e}ziaj\IeC {\k a}ce}{8}{subsubsection.2.1.1}}
\@writefile{toc}{\contentsline {paragraph}{}{8}{section*.9}}
\@writefile{toc}{\contentsline {paragraph}{}{8}{section*.10}}
\citation{cmovcc}
\citation{branching_instructions}
\@writefile{toc}{\contentsline {subsection}{\numberline {2.2}Rodzina instrukcji CMOVcc}{9}{subsection.2.2}}
\@writefile{lol}{\contentsline {listing}{\numberline {1}{\ignorespaces Sekwencja przeniesienia warunkowego bez instrukcji CMOVcc\relax }}{9}{figure.caption.11}}
\newlabel{fig:assemblySTD}{{1}{9}{Sekwencja przeniesienia warunkowego bez instrukcji CMOVcc\relax }{figure.caption.11}{}}
\@writefile{lol}{\contentsline {listing}{\numberline {2}{\ignorespaces Sekwencja przeniesienia z u\IeC {\.z}yciem instrukcji CMOVcc\relax }}{9}{figure.caption.11}}
\newlabel{fig:assemblyCMOV}{{2}{9}{Sekwencja przeniesienia z użyciem instrukcji CMOVcc\relax }{figure.caption.11}{}}
\@writefile{toc}{\contentsline {paragraph}{}{9}{section*.12}}
\@writefile{toc}{\contentsline {subsection}{\numberline {2.3}Instrukcje steruj\IeC {\k a}ce przep\IeC {\l }ywem, a przetwarzanie potokowe}{9}{subsection.2.3}}
\@writefile{lof}{\contentsline {figure}{\numberline {3}{\ignorespaces Schemat potokowego wykonania operacji przez procesor\relax }}{9}{figure.caption.13}}
\newlabel{fig:pipelining}{{3}{9}{Schemat potokowego wykonania operacji przez procesor\relax }{figure.caption.13}{}}
\@writefile{toc}{\contentsline {paragraph}{}{9}{section*.14}}
\citation{intel_static}
\citation{intel_static}
\citation{branching_instructions}
\@writefile{toc}{\contentsline {subsubsection}{\numberline {2.3.1}Predykcja statyczna}{10}{subsubsection.2.3.1}}
\@writefile{toc}{\contentsline {paragraph}{}{10}{section*.15}}
\@writefile{lof}{\contentsline {figure}{\numberline {4}{\ignorespaces Uproszczony potokowy spos\IeC {\'o}b wykonania kodu z \textbf  {(Lis. \ref  {fig:assemblySTD}}) --- przypadek, gdy warunek skoku zosta\IeC {\l } spe\IeC {\l }niony.\relax }}{10}{figure.caption.16}}
\newlabel{fig:oldfailure}{{4}{10}{Uproszczony potokowy sposób wykonania kodu z \textbf {(Lis. \ref {fig:assemblySTD}}) --- przypadek, gdy warunek skoku został spełniony.\relax }{figure.caption.16}{}}
\@writefile{lof}{\contentsline {figure}{\numberline {5}{\ignorespaces Uproszczony potokowy spos\IeC {\'o}b wykonania kodu z \textbf  {(Lis. \ref  {fig:assemblySTD}}) --- przypadek, gdy warunek skoku nie zosta\IeC {\l } spe\IeC {\l }niony.\relax }}{10}{figure.caption.16}}
\newlabel{fig:oldsuccessful}{{5}{10}{Uproszczony potokowy sposób wykonania kodu z \textbf {(Lis. \ref {fig:assemblySTD}}) --- przypadek, gdy warunek skoku nie został spełniony.\relax }{figure.caption.16}{}}
\@writefile{toc}{\contentsline {paragraph}{}{10}{section*.17}}
\@writefile{lof}{\contentsline {figure}{\numberline {6}{\ignorespaces Uproszczony potokowy spos\IeC {\'o}b wykonania kodu z \textbf  {(Lis. \ref  {fig:assemblyCMOV}}), u\IeC {\.z}ywaj\IeC {\k a}cy instrukcji przeniesienia warunkowego \textbf  {CMOVE}.\relax }}{10}{figure.caption.18}}
\newlabel{fig:newuniversal}{{6}{10}{Uproszczony potokowy sposób wykonania kodu z \textbf {(Lis. \ref {fig:assemblyCMOV}}), używający instrukcji przeniesienia warunkowego \textbf {CMOVE}.\relax }{figure.caption.18}{}}
\@writefile{toc}{\contentsline {section}{\numberline {3}Dekompozycja instrukcji rozga\IeC {\l }\IeC {\k e}ziaj\IeC {\k a}cych}{11}{section.3}}
\@writefile{toc}{\contentsline {subsection}{\numberline {3.1}Ograniczenia optymalizacyjne kompilator\IeC {\'o}w}{11}{subsection.3.1}}
\@writefile{lol}{\contentsline {listing}{\numberline {3}{\ignorespaces Funkcja znajduj\IeC {\k a}ca ostatni indeks elementu w tablicy o zdanej warto\IeC {\'s}ci\relax }}{11}{figure.caption.19}}
\newlabel{fig:simpleForLoop}{{3}{11}{Funkcja znajdująca ostatni indeks elementu w tablicy o zdanej wartości\relax }{figure.caption.19}{}}
\@writefile{lol}{\contentsline {listing}{\numberline {4}{\ignorespaces Reprezentatywny fragment kodu maszynowego p\IeC {\k e}tli \textit  {for} z \textbf  {Listingu \ref  {fig:simpleForLoop}}\relax }}{11}{figure.caption.19}}
\newlabel{fig:simpleForLoopAsm}{{4}{11}{Reprezentatywny fragment kodu maszynowego pętli \textit {for} z \textbf {Listingu \ref {fig:simpleForLoop}}\relax }{figure.caption.19}{}}
\@writefile{toc}{\contentsline {paragraph}{}{11}{section*.20}}
\@writefile{toc}{\contentsline {subsection}{\numberline {3.2}Optymalizacja instrukcji steruj\IeC {\k a}cych przep\IeC {\l }ywem w j\IeC {\k e}zykach wysokiego poziomu}{11}{subsection.3.2}}
\newlabel{listing}{{\caption@xref {listing}{ on input line 54}}{12}{Optymalizacja instrukcji sterujących przepływem w językach wysokiego poziomu}{figure.caption.21}{}}
\@writefile{lol}{\contentsline {listing}{\numberline {5}{\ignorespaces Podstawowa funkcja sortuj\IeC {\k a}ca przed optymalizacj\IeC {\k a} w wariancie dla j\IeC {\k e}zyka \textit  {C} oraz \textit  {C++}\relax }}{12}{figure.caption.21}}
\newlabel{fig:bubbleStd}{{5}{12}{Podstawowa funkcja sortująca przed optymalizacją w wariancie dla języka \textit {C} oraz \textit {C++}\relax }{figure.caption.21}{}}
\@writefile{lol}{\contentsline {listing}{\numberline {6}{\ignorespaces Oczyszczony przyk\IeC {\l }adowy kod maszynowy dla wewn\IeC {\k e}trznej p\IeC {\k e}tli \textit  {for} w kodzie z (Lis. \ref  {fig:bubbleStd}) wygenerowany przez kompilator clang 7.0.0 przy kompilacji z flag\IeC {\k a} \textbf  {\textit  {-O2}}\relax }}{12}{figure.caption.21}}
\newlabel{fig:bubbleStdAsm}{{6}{12}{Oczyszczony przykładowy kod maszynowy dla wewnętrznej pętli \textit {for} w kodzie z (Lis. \ref {fig:bubbleStd}) wygenerowany przez kompilator clang 7.0.0 przy kompilacji z flagą \textbf {\textit {-O2}}\relax }{figure.caption.21}{}}
\@writefile{toc}{\contentsline {paragraph}{}{12}{section*.22}}
\newlabel{listing}{{\caption@xref {listing}{ on input line 106}}{12}{}{figure.caption.23}{}}
\@writefile{lol}{\contentsline {listing}{\numberline {7}{\ignorespaces Proponowana optymalizacja funkcji sortuj\IeC {\k a}cej w wariancie dla j\IeC {\k e}zyka \textit  {C} oraz \textit  {C++}\relax }}{12}{figure.caption.23}}
\newlabel{fig:bubbleOpt}{{7}{12}{Proponowana optymalizacja funkcji sortującej w wariancie dla języka \textit {C} oraz \textit {C++}\relax }{figure.caption.23}{}}
\@writefile{lol}{\contentsline {listing}{\numberline {8}{\ignorespaces Oczyszczony przyk\IeC {\l }adowy kod maszynowy dla wewn\IeC {\k e}trznej p\IeC {\k e}tli \textit  {for} w kodzie z (Lis. \ref  {fig:bubbleOpt}) wygenerowany przez kompilator clang 7.0.0 przy kompilacji z flag\IeC {\k a} \textbf  {\textit  {-O2}}\relax }}{12}{figure.caption.23}}
\newlabel{fig:bubbleOptAsm}{{8}{12}{Oczyszczony przykładowy kod maszynowy dla wewnętrznej pętli \textit {for} w kodzie z (Lis. \ref {fig:bubbleOpt}) wygenerowany przez kompilator clang 7.0.0 przy kompilacji z flagą \textbf {\textit {-O2}}\relax }{figure.caption.23}{}}
\@writefile{toc}{\contentsline {paragraph}{}{13}{section*.24}}
\@writefile{toc}{\contentsline {subsubsection}{\numberline {3.2.1}Alternatywne przypadki testowe}{13}{subsubsection.3.2.1}}
\newlabel{listing}{{\caption@xref {listing}{ on input line 167}}{13}{Alternatywne przypadki testowe}{figure.caption.25}{}}
\@writefile{lol}{\contentsline {listing}{\numberline {9}{\ignorespaces Alternatywna wersja do\IeC {\'s}wiadczalna z instrukcjami warunkowymi w postaci \textit  {\textbf  {if}}\relax }}{13}{figure.caption.25}}
\newlabel{fig:bubbleAlterTest1}{{9}{13}{Alternatywna wersja doświadczalna z instrukcjami warunkowymi w postaci \textit {\textbf {if}}\relax }{figure.caption.25}{}}
\newlabel{listing}{{\caption@xref {listing}{ on input line 197}}{13}{Alternatywne przypadki testowe}{figure.caption.25}{}}
\@writefile{lol}{\contentsline {listing}{\numberline {10}{\ignorespaces Alternatywna wersja do\IeC {\'s}wiadczalna z instrukcjami warunkowymi w postaci operatora tr\IeC {\'o}jargumentowego\relax }}{13}{figure.caption.25}}
\newlabel{fig:bubbleAlterTest2}{{10}{13}{Alternatywna wersja doświadczalna z instrukcjami warunkowymi w postaci operatora trójargumentowego\relax }{figure.caption.25}{}}
\@input{testing_environment.aux}
\@input{experiments_results.aux}
\@input{summary.aux}
\@input{bibliography.aux}
\@input{attachments_code.aux}
\@input{references.aux}
\gdef\minted@oldcachelist{,
  default-pyg-prefix.pygstyle,
  default.pygstyle,
  D952DBE734958B3F30575412D419AC9935434002784D2CB9BFA6A982B8E346B4.pygtex,
  3DD779114D1425703B10B42C846EE45D35434002784D2CB9BFA6A982B8E346B4.pygtex,
  6E8756D09AF54E108C0F354EE777CBB72DF201EAFB046300ACD42EB16FEDCF78.pygtex,
  E862C879FDF5347F47A4398BEAA8648535434002784D2CB9BFA6A982B8E346B4.pygtex,
  5CC999B707A38384AF296064FDB95C6D2DF201EAFB046300ACD42EB16FEDCF78.pygtex,
  220A38D27CF4A3914C65E145AF4AC30035434002784D2CB9BFA6A982B8E346B4.pygtex,
  3C867C690FD00BD6C231044EED0C542C2DF201EAFB046300ACD42EB16FEDCF78.pygtex,
  9C2B2985489ABAA725E3C405BB5CD08335434002784D2CB9BFA6A982B8E346B4.pygtex,
  8674863521D3268FC7FBC1DEB88DAD972DF201EAFB046300ACD42EB16FEDCF78.pygtex,
  1E94F45428C124440905DB77BB19C0772DF201EAFB046300ACD42EB16FEDCF78.pygtex,
  A3365E56CBBB178A36525BA7FDCCEDC22DF201EAFB046300ACD42EB16FEDCF78.pygtex,
  152B24E26E3DBBA97CA6E76BE801F3E62DF201EAFB046300ACD42EB16FEDCF78.pygtex,
  1E170779261ADDF516811F92CA5484D22DF201EAFB046300ACD42EB16FEDCF78.pygtex,
  B91152CE5ADEDB55EF07BF3D3A24F7772DF201EAFB046300ACD42EB16FEDCF78.pygtex,
  3BAE327DD276C32C1A6166BC7A31A69F6C873C979B79E9ECA41B19F41CDAAA85.pygtex,
  94CBC594EDC3F32160A93A8773B5B9836C873C979B79E9ECA41B19F41CDAAA85.pygtex,
  A7C3C77B04AF1F5B482C380DA87DB8C56C873C979B79E9ECA41B19F41CDAAA85.pygtex,
  BA7F7CE1F441ED901194823148B947BC6C873C979B79E9ECA41B19F41CDAAA85.pygtex,
  84B0C6991A4757313034D1CEAB1A660BF017541A9AACD6F10E3D5B1F59975855.pygtex,
  4383AF1CE22EBFCB69134BB19F53A1DBF017541A9AACD6F10E3D5B1F59975855.pygtex,
  8C9ED62DE17B6E3EADD40EB5DA3D0ADEF017541A9AACD6F10E3D5B1F59975855.pygtex,
  25DF9297BE7B008E3096E352AA13F41DF017541A9AACD6F10E3D5B1F59975855.pygtex}
