\relax 
\providecommand{\transparent@use}[1]{}
\providecommand\hyper@newdestlabel[2]{}
\bibcite{branching_instructions}{1}
\bibcite{aot}{2}
\bibcite{jit}{3}
\bibcite{codemanipulation}{4}
\bibcite{x86assemblystatistics}{5}
\bibcite{x86assemblymanual}{6}
\bibcite{branchingexpl}{7}
\bibcite{branching}{8}
\bibcite{cmovcc}{9}
\bibcite{intel_static}{10}
\@writefile{toc}{\contentsline {section}{\numberline {7}Bibliografia}{21}{section.7}}
\bibcite{code_manipulation}{11}
\@setckpt{bibliography}{
\setcounter{page}{23}
\setcounter{equation}{0}
\setcounter{enumi}{0}
\setcounter{enumii}{0}
\setcounter{enumiii}{0}
\setcounter{enumiv}{11}
\setcounter{footnote}{0}
\setcounter{mpfootnote}{0}
\setcounter{part}{0}
\setcounter{section}{7}
\setcounter{subsection}{0}
\setcounter{subsubsection}{0}
\setcounter{paragraph}{0}
\setcounter{subparagraph}{0}
\setcounter{figure}{6}
\setcounter{table}{2}
\setcounter{ContinuedFloat}{0}
\setcounter{subfigure}{0}
\setcounter{subtable}{0}
\setcounter{float@type}{32}
\setcounter{svg@param@lastpage}{0}
\setcounter{svg@param@currpage}{-1}
\setcounter{lstnumber}{1}
\setcounter{FancyVerbLine}{17}
\setcounter{linenumber}{1}
\setcounter{LN@truepage}{18}
\setcounter{FV@TrueTabGroupLevel}{0}
\setcounter{FV@TrueTabCounter}{0}
\setcounter{FV@HighlightLinesStart}{0}
\setcounter{FV@HighlightLinesStop}{0}
\setcounter{FancyVerbLineBreakLast}{0}
\setcounter{minted@FancyVerbLineTemp}{20}
\setcounter{minted@pygmentizecounter}{10}
\setcounter{listing}{10}
\setcounter{Item}{0}
\setcounter{Hfootnote}{0}
\setcounter{bookmark@seq@number}{38}
\setcounter{chart}{4}
\setcounter{subchart}{0}
\setcounter{lstlisting}{0}
\setcounter{section@level}{1}
}
