\relax 
\providecommand{\transparent@use}[1]{}
\providecommand\hyper@newdestlabel[2]{}
\@writefile{toc}{\contentsline {section}{\numberline {3}Dekompozycja instrukcji rozga\IeC {\l }\IeC {\k e}ziaj\IeC {\k a}cych}{12}{section.3}}
\@writefile{toc}{\contentsline {subsection}{\numberline {3.1}Ograniczenia optymalizacyjne kompilator\IeC {\'o}w}{12}{subsection.3.1}}
\@writefile{lol}{\contentsline {listing}{\numberline {3}{\ignorespaces Funkcja znajduj\IeC {\k a}ca ostatni indeks elementu w tablicy o zdanej warto\IeC {\'s}ci\relax }}{12}{figure.caption.20}}
\newlabel{fig:simpleForLoop}{{3}{12}{Funkcja znajdująca ostatni indeks elementu w tablicy o zdanej wartości\relax }{figure.caption.20}{}}
\@writefile{lol}{\contentsline {listing}{\numberline {4}{\ignorespaces Reprezentatywny fragment kodu maszynowego p\IeC {\k e}tli \textit  {for} z \textbf  {Listingu \ref  {fig:simpleForLoop}}\relax }}{12}{figure.caption.20}}
\newlabel{fig:simpleForLoopAsm}{{4}{12}{Reprezentatywny fragment kodu maszynowego pętli \textit {for} z \textbf {Listingu \ref {fig:simpleForLoop}}\relax }{figure.caption.20}{}}
\@writefile{toc}{\contentsline {paragraph}{}{12}{section*.21}}
\@writefile{toc}{\contentsline {subsection}{\numberline {3.2}Optymalizacja instrukcji steruj\IeC {\k a}cych przep\IeC {\l }ywem w j\IeC {\k e}zykach wysokiego poziomu}{12}{subsection.3.2}}
\newlabel{listing}{{\caption@xref {listing}{ on input line 56}}{13}{Optymalizacja instrukcji sterujących przepływem w językach wysokiego poziomu}{figure.caption.22}{}}
\@writefile{lol}{\contentsline {listing}{\numberline {5}{\ignorespaces Podstawowa funkcja sortuj\IeC {\k a}ca przed optymalizacj\IeC {\k a} w wariancie dla j\IeC {\k e}zyka \textit  {C} oraz \textit  {C++}\relax }}{13}{figure.caption.22}}
\newlabel{fig:bubbleStd}{{5}{13}{Podstawowa funkcja sortująca przed optymalizacją w wariancie dla języka \textit {C} oraz \textit {C++}\relax }{figure.caption.22}{}}
\@writefile{lol}{\contentsline {listing}{\numberline {6}{\ignorespaces Oczyszczony przyk\IeC {\l }adowy kod w \newline  \textit  {j. Asembler} dla wewn\IeC {\k e}trznej p\IeC {\k e}tli \textit  {for} w kodzie z (Lis. \ref  {fig:bubbleStd}) wygenerowany przez kompilator clang 7.0.0 przy kompilacji z flag\IeC {\k a} \textbf  {\textit  {-O2}}\relax }}{13}{figure.caption.22}}
\newlabel{fig:bubbleStdAsm}{{6}{13}{Oczyszczony przykładowy kod w \newline \textit {j. Asembler} dla wewnętrznej pętli \textit {for} w kodzie z (Lis. \ref {fig:bubbleStd}) wygenerowany przez kompilator clang 7.0.0 przy kompilacji z flagą \textbf {\textit {-O2}}\relax }{figure.caption.22}{}}
\@writefile{toc}{\contentsline {paragraph}{}{13}{section*.23}}
\newlabel{listing}{{\caption@xref {listing}{ on input line 113}}{13}{}{figure.caption.24}{}}
\@writefile{lol}{\contentsline {listing}{\numberline {7}{\ignorespaces Proponowana optymalizacja funkcji sortuj\IeC {\k a}cej w wariancie dla j\IeC {\k e}zyka \textit  {C} oraz \textit  {C++}\relax }}{13}{figure.caption.24}}
\newlabel{fig:bubbleOpt}{{7}{13}{Proponowana optymalizacja funkcji sortującej w wariancie dla języka \textit {C} oraz \textit {C++}\relax }{figure.caption.24}{}}
\@writefile{lol}{\contentsline {listing}{\numberline {8}{\ignorespaces Oczyszczony przyk\IeC {\l }adowy kod maszynowy dla wewn\IeC {\k e}trznej p\IeC {\k e}tli \textit  {for} w kodzie z (Lis. \ref  {fig:bubbleOpt}) wygenerowany przez kompilator clang 7.0.0 przy kompilacji z flag\IeC {\k a} \textbf  {\textit  {-O2}}\relax }}{13}{figure.caption.24}}
\newlabel{fig:bubbleOptAsm}{{8}{13}{Oczyszczony przykładowy kod maszynowy dla wewnętrznej pętli \textit {for} w kodzie z (Lis. \ref {fig:bubbleOpt}) wygenerowany przez kompilator clang 7.0.0 przy kompilacji z flagą \textbf {\textit {-O2}}\relax }{figure.caption.24}{}}
\@writefile{toc}{\contentsline {paragraph}{}{14}{section*.25}}
\@writefile{toc}{\contentsline {subsubsection}{\numberline {3.2.1}Alternatywne przypadki testowe}{14}{subsubsection.3.2.1}}
\newlabel{listing}{{\caption@xref {listing}{ on input line 177}}{14}{Alternatywne przypadki testowe}{figure.caption.26}{}}
\@writefile{lol}{\contentsline {listing}{\numberline {9}{\ignorespaces Alternatywna wersja do\IeC {\'s}wiadczalna z instrukcjami warunkowymi w postaci \textit  {\textbf  {if}}\relax }}{14}{figure.caption.26}}
\newlabel{fig:bubbleAlterTest1}{{9}{14}{Alternatywna wersja doświadczalna z instrukcjami warunkowymi w postaci \textit {\textbf {if}}\relax }{figure.caption.26}{}}
\newlabel{listing}{{\caption@xref {listing}{ on input line 211}}{14}{Alternatywne przypadki testowe}{figure.caption.26}{}}
\@writefile{lol}{\contentsline {listing}{\numberline {10}{\ignorespaces Alternatywna wersja do\IeC {\'s}wiadczalna z instrukcjami warunkowymi w postaci operatora tr\IeC {\'o}jargumentowego\relax }}{14}{figure.caption.26}}
\newlabel{fig:bubbleAlterTest2}{{10}{14}{Alternatywna wersja doświadczalna z instrukcjami warunkowymi w postaci operatora trójargumentowego\relax }{figure.caption.26}{}}
\@setckpt{decomposition}{
\setcounter{page}{15}
\setcounter{equation}{0}
\setcounter{enumi}{0}
\setcounter{enumii}{0}
\setcounter{enumiii}{0}
\setcounter{enumiv}{0}
\setcounter{footnote}{0}
\setcounter{mpfootnote}{0}
\setcounter{part}{0}
\setcounter{section}{3}
\setcounter{subsection}{2}
\setcounter{subsubsection}{1}
\setcounter{paragraph}{0}
\setcounter{subparagraph}{0}
\setcounter{figure}{6}
\setcounter{table}{0}
\setcounter{ContinuedFloat}{0}
\setcounter{subfigure}{0}
\setcounter{subtable}{0}
\setcounter{float@type}{32}
\setcounter{svg@param@lastpage}{0}
\setcounter{svg@param@currpage}{-1}
\setcounter{lstnumber}{1}
\setcounter{FancyVerbLine}{19}
\setcounter{linenumber}{1}
\setcounter{LN@truepage}{10}
\setcounter{FV@TrueTabGroupLevel}{0}
\setcounter{FV@TrueTabCounter}{0}
\setcounter{FV@HighlightLinesStart}{0}
\setcounter{FV@HighlightLinesStop}{0}
\setcounter{FancyVerbLineBreakLast}{0}
\setcounter{minted@FancyVerbLineTemp}{24}
\setcounter{minted@pygmentizecounter}{10}
\setcounter{listing}{10}
\setcounter{Item}{0}
\setcounter{Hfootnote}{0}
\setcounter{bookmark@seq@number}{15}
\setcounter{chart}{0}
\setcounter{subchart}{0}
\setcounter{lstlisting}{0}
\setcounter{section@level}{3}
}
