\relax 
\providecommand{\transparent@use}[1]{}
\providecommand\hyper@newdestlabel[2]{}
\@writefile{toc}{\contentsline {section}{\numberline {5}Eksperymentalne testy wydajno\IeC {\'s}ci proponowanej dekompozycji}{15}{section.5}}
\@writefile{toc}{\contentsline {subsection}{\numberline {5.1}Metodologia bada\IeC {\'n}}{15}{subsection.5.1}}
\@writefile{lot}{\contentsline {table}{\numberline {1}{\ignorespaces Wyniki pomiar\IeC {\'o}w test\IeC {\'o}w kodu w wersji \textit  {j\IeC {\k e}zyka C} dla kompilatora \textit  {gcc}\relax }}{15}{table.caption.26}}
\newlabel{tab:tabgcc}{{1}{15}{Wyniki pomiarów testów kodu w wersji \textit {języka C} dla kompilatora \textit {gcc}\relax }{table.caption.26}{}}
\@writefile{lot}{\contentsline {table}{\numberline {2}{\ignorespaces Wyniki pomiar\IeC {\'o}w test\IeC {\'o}w kodu w wersji \textit  {j\IeC {\k e}zyka C} dla kompilatora \textit  {clang}\relax }}{15}{table.caption.27}}
\newlabel{tab:tabclang}{{2}{15}{Wyniki pomiarów testów kodu w wersji \textit {języka C} dla kompilatora \textit {clang}\relax }{table.caption.27}{}}
\@writefile{toc}{\contentsline {paragraph}{}{15}{section*.28}}
\@writefile{toc}{\contentsline {paragraph}{}{15}{section*.29}}
\@writefile{toc}{\contentsline {subsection}{\numberline {5.2}Wyniki oraz wnioski dla kod\IeC {\'o}w kompilowanych AOT}{16}{subsection.5.2}}
\@writefile{toc}{\contentsline {subsubsection}{\numberline {5.2.1}Testy wydajno\IeC {\'s}ci dla j\IeC {\k e}zyka C}{16}{subsubsection.5.2.1}}
\@writefile{lochart}{\contentsline {chart}{\numberline {1}{\ignorespaces Por\IeC {\'o}wnanie wydajno\IeC {\'s}ci proponowanych optymalizacji dla j\IeC {\k e}zyka C\relax }}{16}{figure.caption.30}}
\newlabel{fig:c}{{1}{16}{Porównanie wydajności proponowanych optymalizacji dla języka C\relax }{figure.caption.30}{}}
\@writefile{toc}{\contentsline {subsubsection}{\numberline {5.2.2}Analiza wynik\IeC {\'o}w bada\IeC {\'n} dla j\IeC {\k e}zyka C}{16}{subsubsection.5.2.2}}
\@writefile{toc}{\contentsline {paragraph}{}{16}{section*.31}}
\@writefile{toc}{\contentsline {paragraph}{}{16}{section*.32}}
\@writefile{toc}{\contentsline {subsubsection}{\numberline {5.2.3}Testy wydajno\IeC {\'s}ci dla j\IeC {\k e}zyka C++}{17}{subsubsection.5.2.3}}
\@writefile{lochart}{\contentsline {chart}{\numberline {2}{\ignorespaces Por\IeC {\'o}wnanie wydajno\IeC {\'s}ci proponowanych optymalizacji dla j\IeC {\k e}zyka C++\relax }}{17}{figure.caption.33}}
\newlabel{fig:cpp}{{2}{17}{Porównanie wydajności proponowanych optymalizacji dla języka C++\relax }{figure.caption.33}{}}
\@writefile{toc}{\contentsline {subsubsection}{\numberline {5.2.4}Analiza wynik\IeC {\'o}w bada\IeC {\'n} dla j\IeC {\k e}zyka C++}{17}{subsubsection.5.2.4}}
\@writefile{toc}{\contentsline {paragraph}{}{17}{section*.34}}
\@writefile{toc}{\contentsline {subsubsection}{\numberline {5.2.5}Rozbie\IeC {\.z}no\IeC {\'s}\IeC {\'c} mi\IeC {\k e}dzy badanymi kompilatorami}{17}{subsubsection.5.2.5}}
\@writefile{toc}{\contentsline {paragraph}{}{17}{section*.35}}
\@writefile{toc}{\contentsline {paragraph}{}{18}{section*.36}}
\@writefile{toc}{\contentsline {subsection}{\numberline {5.3}Wyniki oraz wnioski dla wybranych \IeC {\'s}rodowisk maszyn wirtualnych}{18}{subsection.5.3}}
\@writefile{toc}{\contentsline {subsubsection}{\numberline {5.3.1}Testy wydajno\IeC {\'s}ci dla j\IeC {\k e}zyka C Sharp}{18}{subsubsection.5.3.1}}
\@writefile{lochart}{\contentsline {chart}{\numberline {3}{\ignorespaces Por\IeC {\'o}wnanie wydajno\IeC {\'s}ci proponowanych optymalizacji dla j\IeC {\k e}zyka C Sharp\relax }}{18}{figure.caption.37}}
\newlabel{fig:csharp}{{3}{18}{Porównanie wydajności proponowanych optymalizacji dla języka C Sharp\relax }{figure.caption.37}{}}
\@writefile{toc}{\contentsline {subsubsection}{\numberline {5.3.2}Problemy niestabilnego \IeC {\'s}rodowiska uruchomieniowego}{18}{subsubsection.5.3.2}}
\@writefile{toc}{\contentsline {subsubsection}{\numberline {5.3.3}Analiza wynik\IeC {\'o}w bada\IeC {\'n} dla j\IeC {\k e}zyka C Sharp}{18}{subsubsection.5.3.3}}
\@writefile{toc}{\contentsline {subsubsection}{\numberline {5.3.4}Testy wydajno\IeC {\'s}ci dla j\IeC {\k e}zyka Java}{19}{subsubsection.5.3.4}}
\@writefile{lochart}{\contentsline {chart}{\numberline {4}{\ignorespaces Por\IeC {\'o}wnanie wydajno\IeC {\'s}ci proponowanych optymalizacji dla j\IeC {\k e}zyka Java\relax }}{19}{figure.caption.38}}
\newlabel{fig:java}{{4}{19}{Porównanie wydajności proponowanych optymalizacji dla języka Java\relax }{figure.caption.38}{}}
\@writefile{toc}{\contentsline {subsubsection}{\numberline {5.3.5}Analiza wynik\IeC {\'o}w bada\IeC {\'n} dla j\IeC {\k e}zyka Java}{19}{subsubsection.5.3.5}}
\@writefile{toc}{\contentsline {paragraph}{}{19}{section*.39}}
\@setckpt{experiments_results}{
\setcounter{page}{20}
\setcounter{equation}{0}
\setcounter{enumi}{0}
\setcounter{enumii}{0}
\setcounter{enumiii}{0}
\setcounter{enumiv}{0}
\setcounter{footnote}{0}
\setcounter{mpfootnote}{0}
\setcounter{part}{0}
\setcounter{section}{5}
\setcounter{subsection}{3}
\setcounter{subsubsection}{5}
\setcounter{paragraph}{0}
\setcounter{subparagraph}{0}
\setcounter{figure}{6}
\setcounter{table}{2}
\setcounter{ContinuedFloat}{0}
\setcounter{subfigure}{0}
\setcounter{subtable}{0}
\setcounter{float@type}{32}
\setcounter{svg@param@lastpage}{0}
\setcounter{svg@param@currpage}{-1}
\setcounter{lstnumber}{1}
\setcounter{FancyVerbLine}{17}
\setcounter{linenumber}{1}
\setcounter{LN@truepage}{15}
\setcounter{FV@TrueTabGroupLevel}{0}
\setcounter{FV@TrueTabCounter}{0}
\setcounter{FV@HighlightLinesStart}{0}
\setcounter{FV@HighlightLinesStop}{0}
\setcounter{FancyVerbLineBreakLast}{0}
\setcounter{minted@FancyVerbLineTemp}{20}
\setcounter{minted@pygmentizecounter}{10}
\setcounter{listing}{10}
\setcounter{Item}{0}
\setcounter{Hfootnote}{0}
\setcounter{bookmark@seq@number}{36}
\setcounter{chart}{4}
\setcounter{subchart}{0}
\setcounter{lstlisting}{0}
\setcounter{section@level}{4}
}
