\relax 
\providecommand{\transparent@use}[1]{}
\providecommand\hyper@newdestlabel[2]{}
\citation{aot}
\citation{jit}
\@writefile{toc}{\contentsline {section}{\numberline {1}Wst\IeC {\k e}p}{6}{section.1}}
\@writefile{toc}{\contentsline {subsection}{\numberline {1.1}Metody kompilacji i wykonywania programu}{6}{subsection.1.1}}
\@writefile{toc}{\contentsline {subsubsection}{\numberline {1.1.1}Kompilacja Ahead-Of-Time}{6}{subsubsection.1.1.1}}
\@writefile{lof}{\contentsline {figure}{\numberline {1}{\ignorespaces Przebieg kompilacji AOT\relax }}{6}{figure.caption.2}}
\providecommand*\caption@xref[2]{\@setref\relax\@undefined{#1}}
\newlabel{fig:aot}{{1}{6}{Przebieg kompilacji AOT\relax }{figure.caption.2}{}}
\@writefile{toc}{\contentsline {paragraph}{}{6}{section*.3}}
\@writefile{toc}{\contentsline {subsubsection}{\numberline {1.1.2}Kompilacja Just-In-Time}{6}{subsubsection.1.1.2}}
\citation{codemanipulation}
\@writefile{lof}{\contentsline {figure}{\numberline {2}{\ignorespaces Przebieg kompilacji i wykonania programu JIT\relax }}{7}{figure.caption.4}}
\newlabel{fig:jit}{{2}{7}{Przebieg kompilacji i wykonania programu JIT\relax }{figure.caption.4}{}}
\@writefile{toc}{\contentsline {paragraph}{}{7}{section*.5}}
\@writefile{toc}{\contentsline {subsection}{\numberline {1.2}Optymalizacja r\IeC {\k e}czna}{7}{subsection.1.2}}
\@writefile{toc}{\contentsline {paragraph}{}{7}{section*.6}}
\@writefile{toc}{\contentsline {paragraph}{}{7}{section*.7}}
\@setckpt{introduction}{
\setcounter{page}{9}
\setcounter{equation}{0}
\setcounter{enumi}{0}
\setcounter{enumii}{0}
\setcounter{enumiii}{0}
\setcounter{enumiv}{0}
\setcounter{footnote}{0}
\setcounter{mpfootnote}{0}
\setcounter{part}{0}
\setcounter{section}{1}
\setcounter{subsection}{2}
\setcounter{subsubsection}{0}
\setcounter{paragraph}{0}
\setcounter{subparagraph}{0}
\setcounter{figure}{2}
\setcounter{table}{0}
\setcounter{ContinuedFloat}{0}
\setcounter{subfigure}{0}
\setcounter{subtable}{0}
\setcounter{float@type}{32}
\setcounter{svg@param@lastpage}{0}
\setcounter{svg@param@currpage}{-1}
\setcounter{lstnumber}{1}
\setcounter{FancyVerbLine}{0}
\setcounter{linenumber}{1}
\setcounter{LN@truepage}{4}
\setcounter{FV@TrueTabGroupLevel}{0}
\setcounter{FV@TrueTabCounter}{0}
\setcounter{FV@HighlightLinesStart}{0}
\setcounter{FV@HighlightLinesStop}{0}
\setcounter{FancyVerbLineBreakLast}{0}
\setcounter{minted@FancyVerbLineTemp}{0}
\setcounter{minted@pygmentizecounter}{0}
\setcounter{listing}{0}
\setcounter{Item}{0}
\setcounter{Hfootnote}{0}
\setcounter{bookmark@seq@number}{5}
\setcounter{chart}{0}
\setcounter{subchart}{0}
\setcounter{lstlisting}{0}
\setcounter{section@level}{4}
}
