\relax 
\providecommand{\transparent@use}[1]{}
\providecommand\hyper@newdestlabel[2]{}
\@writefile{toc}{\contentsline {section}{\numberline {9}Spis odwo\IeC {\l }a\IeC {\'n}}{26}{section.9}}
\@setckpt{references}{
\setcounter{page}{28}
\setcounter{equation}{0}
\setcounter{enumi}{0}
\setcounter{enumii}{0}
\setcounter{enumiii}{0}
\setcounter{enumiv}{11}
\setcounter{footnote}{0}
\setcounter{mpfootnote}{0}
\setcounter{part}{0}
\setcounter{section}{9}
\setcounter{subsection}{0}
\setcounter{subsubsection}{0}
\setcounter{paragraph}{0}
\setcounter{subparagraph}{0}
\setcounter{figure}{6}
\setcounter{table}{2}
\setcounter{ContinuedFloat}{0}
\setcounter{subfigure}{0}
\setcounter{subtable}{0}
\setcounter{float@type}{32}
\setcounter{svg@param@lastpage}{0}
\setcounter{svg@param@currpage}{-1}
\setcounter{lstnumber}{1}
\setcounter{FancyVerbLine}{21}
\setcounter{linenumber}{1}
\setcounter{LN@truepage}{23}
\setcounter{FV@TrueTabGroupLevel}{0}
\setcounter{FV@TrueTabCounter}{0}
\setcounter{FV@HighlightLinesStart}{0}
\setcounter{FV@HighlightLinesStop}{0}
\setcounter{FancyVerbLineBreakLast}{0}
\setcounter{minted@FancyVerbLineTemp}{21}
\setcounter{minted@pygmentizecounter}{22}
\setcounter{listing}{22}
\setcounter{Item}{0}
\setcounter{Hfootnote}{0}
\setcounter{bookmark@seq@number}{43}
\setcounter{chart}{4}
\setcounter{subchart}{0}
\setcounter{lstlisting}{0}
\setcounter{section@level}{1}
}
