\relax 
\providecommand{\transparent@use}[1]{}
\providecommand\hyper@newdestlabel[2]{}
\@writefile{toc}{\contentsline {section}{\numberline {4}\IeC {\'S}rodowisko testowe}{14}{section.4}}
\@writefile{toc}{\contentsline {subsection}{\numberline {4.1}Specyfikacja komputera u\IeC {\.z}ywanego w badaniach}{14}{subsection.4.1}}
\@writefile{toc}{\contentsline {subsection}{\numberline {4.2}Badane kompilatory oraz \IeC {\'s}rodowiska maszyn wirtualnych}{14}{subsection.4.2}}
\@writefile{toc}{\contentsline {subsubsection}{\numberline {4.2.1}J\IeC {\k e}zyk C}{14}{subsubsection.4.2.1}}
\@writefile{toc}{\contentsline {subsubsection}{\numberline {4.2.2}J\IeC {\k e}zyk C++}{14}{subsubsection.4.2.2}}
\@writefile{toc}{\contentsline {subsubsection}{\numberline {4.2.3}J\IeC {\k e}zyk C Sharp}{14}{subsubsection.4.2.3}}
\@writefile{toc}{\contentsline {subsubsection}{\numberline {4.2.4}J\IeC {\k e}zyk Java}{14}{subsubsection.4.2.4}}
\@setckpt{testing_environment}{
\setcounter{page}{15}
\setcounter{equation}{0}
\setcounter{enumi}{0}
\setcounter{enumii}{0}
\setcounter{enumiii}{0}
\setcounter{enumiv}{0}
\setcounter{footnote}{0}
\setcounter{mpfootnote}{0}
\setcounter{part}{0}
\setcounter{section}{4}
\setcounter{subsection}{2}
\setcounter{subsubsection}{4}
\setcounter{paragraph}{0}
\setcounter{subparagraph}{0}
\setcounter{figure}{6}
\setcounter{table}{0}
\setcounter{ContinuedFloat}{0}
\setcounter{subfigure}{0}
\setcounter{subtable}{0}
\setcounter{float@type}{32}
\setcounter{svg@param@lastpage}{0}
\setcounter{svg@param@currpage}{-1}
\setcounter{lstnumber}{1}
\setcounter{FancyVerbLine}{17}
\setcounter{linenumber}{1}
\setcounter{LN@truepage}{10}
\setcounter{FV@TrueTabGroupLevel}{0}
\setcounter{FV@TrueTabCounter}{0}
\setcounter{FV@HighlightLinesStart}{0}
\setcounter{FV@HighlightLinesStop}{0}
\setcounter{FancyVerbLineBreakLast}{0}
\setcounter{minted@FancyVerbLineTemp}{20}
\setcounter{minted@pygmentizecounter}{10}
\setcounter{listing}{10}
\setcounter{Item}{0}
\setcounter{Hfootnote}{0}
\setcounter{bookmark@seq@number}{22}
\setcounter{chart}{0}
\setcounter{subchart}{0}
\setcounter{lstlisting}{0}
\setcounter{section@level}{3}
}
